-------------------- NODE 1 ---------------------
START > 16:15:19 > part-2-of-2-startFilenameDönence.mp4 > BLUR 
END > 16:16:19 > part-2-of-2-startFilenameDönence.mp4 > BLUR 
START > 16:16:19 > part-5-of-24-startFilenamebmw.mp4 > BLUR 
END > 16:17:00 > part-5-of-24-startFilenamebmw.mp4 > BLUR 
START > 16:17:04 > part-5-of-24-startFilenamebmw.mp4 > STABILIZE 
END > 16:17:44 > part-5-of-24-startFilenamebmw.mp4 > STABILIZE 
START > 16:17:44 > part-2-of-2-startFilenameDönence.mp4 > STABILIZE 
END > 16:18:34 > part-2-of-2-startFilenameDönence.mp4 > STABILIZE 
START > 16:18:39 > part-2-of-2-startFilenameDönence.mp4 > ADD_WATERMARK 
END > 16:19:27 > part-2-of-2-startFilenameDönence.mp4 > ADD_WATERMARK 
START > 16:19:27 > part-5-of-24-startFilenamebmw.mp4 > ADD_WATERMARK 
END > 16:20:03 > part-5-of-24-startFilenamebmw.mp4 > ADD_WATERMARK 
START > 16:20:08 > part-5-of-24-startFilenamebmw.mp4 > REVERSE 
END > 16:20:47 > part-5-of-24-startFilenamebmw.mp4 > REVERSE 
START > 16:20:55 > part-5-of-24-startFilenamebmw.mp4 > VINTAGE 
END > 16:21:33 > part-5-of-24-startFilenamebmw.mp4 > VINTAGE 
-------------------- NODE 2 ---------------------
START > 16:14:45 > part-23-of-24-startFilenamebmw.mp4 > BLUR 
END > 16:15:28 > part-23-of-24-startFilenamebmw.mp4 > BLUR 
START > 16:15:28 > part-18-of-24-startFilenamebmw.mp4 > BLUR 
END > 16:16:09 > part-18-of-24-startFilenamebmw.mp4 > BLUR 
START > 16:16:09 > part-1-of-2-startFilenameCemalım.mp4 > BLUR 
END > 16:17:58 > part-1-of-2-startFilenameCemalım.mp4 > BLUR 
START > 16:18:05 > part-1-of-2-startFilenameCemalım.mp4 > STABILIZE 
END > 16:19:43 > part-1-of-2-startFilenameCemalım.mp4 > STABILIZE 
START > 16:19:50 > part-1-of-2-startFilenameCemalım.mp4 > ADD_WATERMARK 
END > 16:21:23 > part-1-of-2-startFilenameCemalım.mp4 > ADD_WATERMARK 
START > 16:21:32 > part-1-of-2-startFilenameCemalım.mp4 > REVERSE 
END > 16:23:00 > part-1-of-2-startFilenameCemalım.mp4 > REVERSE 
START > 16:23:07 > part-1-of-2-startFilenameCemalım.mp4 > VINTAGE 
END > 16:24:32 > part-1-of-2-startFilenameCemalım.mp4 > VINTAGE 
-------------------- NODE 3 ---------------------
START > 16:15:35 > part-23-of-24-startFilenamebmw.mp4 > STABILIZE 
END > 16:16:18 > part-23-of-24-startFilenamebmw.mp4 > STABILIZE 
START > 16:16:18 > part-18-of-24-startFilenamebmw.mp4 > STABILIZE 
END > 16:16:59 > part-18-of-24-startFilenamebmw.mp4 > STABILIZE 
START > 16:17:01 > part-15-of-24-startFilenamebmw.mp4 > STABILIZE 
END > 16:17:44 > part-15-of-24-startFilenamebmw.mp4 > STABILIZE 
START > 16:17:44 > part-2-of-2-startFilenameCemalım.mp4 > STABILIZE 
END > 16:18:44 > part-2-of-2-startFilenameCemalım.mp4 > STABILIZE 
START > 16:18:50 > part-16-of-24-startFilenamebmw.mp4 > STABILIZE 
END > 16:19:34 > part-16-of-24-startFilenamebmw.mp4 > STABILIZE 
START > 16:19:35 > part-2-of-2-startFilenameCemalım.mp4 > ADD_WATERMARK 
END > 16:20:31 > part-2-of-2-startFilenameCemalım.mp4 > ADD_WATERMARK 
START > 16:20:31 > part-16-of-24-startFilenamebmw.mp4 > ADD_WATERMARK 
END > 16:21:14 > part-16-of-24-startFilenamebmw.mp4 > ADD_WATERMARK 
START > 16:21:18 > part-16-of-24-startFilenamebmw.mp4 > REVERSE 
END > 16:22:01 > part-16-of-24-startFilenamebmw.mp4 > REVERSE 
START > 16:22:08 > part-16-of-24-startFilenamebmw.mp4 > VINTAGE 
END > 16:22:50 > part-16-of-24-startFilenamebmw.mp4 > VINTAGE 
-------------------- NODE 4 ---------------------
START > 16:16:24 > part-23-of-24-startFilenamebmw.mp4 > ADD_WATERMARK 
END > 16:17:08 > part-23-of-24-startFilenamebmw.mp4 > ADD_WATERMARK 
START > 16:17:08 > part-18-of-24-startFilenamebmw.mp4 > ADD_WATERMARK 
END > 16:17:46 > part-18-of-24-startFilenamebmw.mp4 > ADD_WATERMARK 
START > 16:17:49 > part-15-of-24-startFilenamebmw.mp4 > ADD_WATERMARK 
END > 16:18:30 > part-15-of-24-startFilenamebmw.mp4 > ADD_WATERMARK 
START > 16:18:36 > part-3-of-24-startFilenamebmw.mp4 > ADD_WATERMARK 
END > 16:19:15 > part-3-of-24-startFilenamebmw.mp4 > ADD_WATERMARK 
START > 16:19:15 > part-12-of-24-startFilenamebmw.mp4 > ADD_WATERMARK 
END > 16:20:05 > part-12-of-24-startFilenamebmw.mp4 > ADD_WATERMARK 
START > 16:20:11 > part-2-of-2-startFilenameYolcu.mp4 > ADD_WATERMARK 
END > 16:21:10 > part-2-of-2-startFilenameYolcu.mp4 > ADD_WATERMARK 
START > 16:21:11 > part-20-of-24-startFilenamebmw.mp4 > ADD_WATERMARK 
END > 16:21:50 > part-20-of-24-startFilenamebmw.mp4 > ADD_WATERMARK 
START > 16:21:56 > part-20-of-24-startFilenamebmw.mp4 > REVERSE 
END > 16:22:36 > part-20-of-24-startFilenamebmw.mp4 > REVERSE 
START > 16:22:44 > part-20-of-24-startFilenamebmw.mp4 > VINTAGE 
END > 16:23:24 > part-20-of-24-startFilenamebmw.mp4 > VINTAGE 
-------------------- NODE 5 ---------------------
START > 16:17:14 > part-23-of-24-startFilenamebmw.mp4 > REVERSE 
END > 16:17:54 > part-23-of-24-startFilenamebmw.mp4 > REVERSE 
START > 16:17:54 > part-18-of-24-startFilenamebmw.mp4 > REVERSE 
END > 16:18:34 > part-18-of-24-startFilenamebmw.mp4 > REVERSE 
START > 16:18:36 > part-15-of-24-startFilenamebmw.mp4 > REVERSE 
END > 16:19:18 > part-15-of-24-startFilenamebmw.mp4 > REVERSE 
START > 16:19:19 > part-24-of-24-startFilenamebmw.mp4 > REVERSE 
END > 16:19:52 > part-24-of-24-startFilenamebmw.mp4 > REVERSE 
START > 16:19:54 > part-2-of-2-startFilenameDönence.mp4 > REVERSE 
END > 16:20:44 > part-2-of-2-startFilenameDönence.mp4 > REVERSE 
START > 16:20:47 > part-2-of-2-startFilenameCemalım.mp4 > REVERSE 
END > 16:21:38 > part-2-of-2-startFilenameCemalım.mp4 > REVERSE 
START > 16:21:42 > part-2-of-2-startFilenameYolcu.mp4 > REVERSE 
END > 16:22:40 > part-2-of-2-startFilenameYolcu.mp4 > REVERSE 
START > 16:22:46 > part-2-of-2-startFilenameYolcu.mp4 > VINTAGE 
END > 16:23:47 > part-2-of-2-startFilenameYolcu.mp4 > VINTAGE 
-------------------- NODE 6 ---------------------
START > 16:17:58 > part-23-of-24-startFilenamebmw.mp4 > VINTAGE 
END > 16:18:38 > part-23-of-24-startFilenamebmw.mp4 > VINTAGE 
START > 16:18:43 > part-18-of-24-startFilenamebmw.mp4 > VINTAGE 
END > 16:19:22 > part-18-of-24-startFilenamebmw.mp4 > VINTAGE 
START > 16:19:25 > part-15-of-24-startFilenamebmw.mp4 > VINTAGE 
END > 16:20:07 > part-15-of-24-startFilenamebmw.mp4 > VINTAGE 
START > 16:20:07 > part-24-of-24-startFilenamebmw.mp4 > VINTAGE 
END > 16:20:39 > part-24-of-24-startFilenamebmw.mp4 > VINTAGE 
START > 16:20:49 > part-2-of-2-startFilenameDönence.mp4 > VINTAGE 
END > 16:21:36 > part-2-of-2-startFilenameDönence.mp4 > VINTAGE 
START > 16:21:41 > part-12-of-24-startFilenamebmw.mp4 > VINTAGE 
END > 16:22:30 > part-12-of-24-startFilenamebmw.mp4 > VINTAGE 
START > 16:22:34 > part-2-of-2-startFilenameCemalım.mp4 > VINTAGE 
END > 16:23:28 > part-2-of-2-startFilenameCemalım.mp4 > VINTAGE 
START > 16:23:33 > part-1-of-2-startFilenameYolcu.mp4 > VINTAGE 
END > 16:24:47 > part-1-of-2-startFilenameYolcu.mp4 > VINTAGE 
-------------------- NODE 7 ---------------------
START > 16:18:44 > part-23-of-24-startFilenamebmw.mp4 > MERGE_PARTS 
END > 16:18:49 > part-23-of-24-startFilenamebmw.mp4 > MERGE_PARTS 
START > 16:19:26 > part-18-of-24-startFilenamebmw.mp4 > MERGE_PARTS 
END > 16:19:31 > part-18-of-24-startFilenamebmw.mp4 > MERGE_PARTS 
START > 16:19:59 > part-2-of-24-startFilenamebmw.mp4 > MERGE_PARTS 
END > 16:20:04 > part-2-of-24-startFilenamebmw.mp4 > MERGE_PARTS 
START > 16:20:11 > part-15-of-24-startFilenamebmw.mp4 > MERGE_PARTS 
END > 16:20:16 > part-15-of-24-startFilenamebmw.mp4 > MERGE_PARTS 
START > 16:20:30 > part-19-of-24-startFilenamebmw.mp4 > MERGE_PARTS 
END > 16:20:35 > part-19-of-24-startFilenamebmw.mp4 > MERGE_PARTS 
START > 16:20:45 > part-24-of-24-startFilenamebmw.mp4 > MERGE_PARTS 
END > 16:20:50 > part-24-of-24-startFilenamebmw.mp4 > MERGE_PARTS 
START > 16:21:07 > part-11-of-24-startFilenamebmw.mp4 > MERGE_PARTS 
END > 16:21:12 > part-11-of-24-startFilenamebmw.mp4 > MERGE_PARTS 
START > 16:21:39 > part-5-of-24-startFilenamebmw.mp4 > MERGE_PARTS 
END > 16:21:44 > part-5-of-24-startFilenamebmw.mp4 > MERGE_PARTS 
START > 16:21:45 > part-2-of-2-startFilenameDönence.mp4 > MERGE_PARTS 
END > 16:21:50 > part-2-of-2-startFilenameDönence.mp4 > MERGE_PARTS 
START > 16:21:55 > part-7-of-24-startFilenamebmw.mp4 > MERGE_PARTS 
END > 16:22:00 > part-7-of-24-startFilenamebmw.mp4 > MERGE_PARTS 
START > 16:22:34 > part-12-of-24-startFilenamebmw.mp4 > MERGE_PARTS 
END > 16:22:40 > part-12-of-24-startFilenamebmw.mp4 > MERGE_PARTS 
START > 16:22:47 > part-13-of-24-startFilenamebmw.mp4 > MERGE_PARTS 
END > 16:22:52 > part-13-of-24-startFilenamebmw.mp4 > MERGE_PARTS 
START > 16:22:55 > part-16-of-24-startFilenamebmw.mp4 > MERGE_PARTS 
END > 16:23:00 > part-16-of-24-startFilenamebmw.mp4 > MERGE_PARTS 
START > 16:23:04 > part-3-of-24-startFilenamebmw.mp4 > MERGE_PARTS 
END > 16:23:09 > part-3-of-24-startFilenamebmw.mp4 > MERGE_PARTS 
START > 16:23:09 > part-17-of-24-startFilenamebmw.mp4 > MERGE_PARTS 
END > 16:23:14 > part-17-of-24-startFilenamebmw.mp4 > MERGE_PARTS 
START > 16:23:30 > part-20-of-24-startFilenamebmw.mp4 > MERGE_PARTS 
END > 16:23:35 > part-20-of-24-startFilenamebmw.mp4 > MERGE_PARTS 
START > 16:23:36 > part-2-of-2-startFilenameCemalım.mp4 > MERGE_PARTS 
END > 16:23:41 > part-2-of-2-startFilenameCemalım.mp4 > MERGE_PARTS 
START > 16:23:41 > part-1-of-24-startFilenamebmw.mp4 > MERGE_PARTS 
END > 16:23:46 > part-1-of-24-startFilenamebmw.mp4 > MERGE_PARTS 
START > 16:23:52 > part-10-of-24-startFilenamebmw.mp4 > MERGE_PARTS 
END > 16:23:57 > part-10-of-24-startFilenamebmw.mp4 > MERGE_PARTS 
START > 16:23:58 > part-8-of-24-startFilenamebmw.mp4 > MERGE_PARTS 
END > 16:24:03 > part-8-of-24-startFilenamebmw.mp4 > MERGE_PARTS 
START > 16:24:06 > part-2-of-2-startFilenameYolcu.mp4 > MERGE_PARTS 
END > 16:24:11 > part-2-of-2-startFilenameYolcu.mp4 > MERGE_PARTS 
START > 16:24:11 > part-6-of-24-startFilenamebmw.mp4 > MERGE_PARTS 
END > 16:24:16 > part-6-of-24-startFilenamebmw.mp4 > MERGE_PARTS 
START > 16:24:22 > part-14-of-24-startFilenamebmw.mp4 > MERGE_PARTS 
END > 16:24:27 > part-14-of-24-startFilenamebmw.mp4 > MERGE_PARTS 
START > 16:24:27 > part-4-of-24-startFilenamebmw.mp4 > MERGE_PARTS 
END > 16:24:33 > part-4-of-24-startFilenamebmw.mp4 > MERGE_PARTS 
START > 16:24:33 > part-21-of-24-startFilenamebmw.mp4 > MERGE_PARTS 
END > 16:24:38 > part-21-of-24-startFilenamebmw.mp4 > MERGE_PARTS 
START > 16:24:38 > part-1-of-2-startFilenameCemalım.mp4 > MERGE_PARTS 
END > 16:24:44 > part-1-of-2-startFilenameCemalım.mp4 > MERGE_PARTS 
START > 16:24:47 > part-22-of-24-startFilenamebmw.mp4 > MERGE_PARTS 
END > 16:24:52 > part-22-of-24-startFilenamebmw.mp4 > MERGE_PARTS 
START > 16:24:53 > part-1-of-2-startFilenameYolcu.mp4 > MERGE_PARTS 
END > 16:24:58 > part-1-of-2-startFilenameYolcu.mp4 > MERGE_PARTS 
START > 16:25:26 > part-9-of-24-startFilenamebmw.mp4 > MERGE_PARTS 
END > 16:25:32 > part-9-of-24-startFilenamebmw.mp4 > MERGE_PARTS 
START > 16:25:46 > part-1-of-2-startFilenameDönence.mp4 > MERGE_PARTS 
END > 16:25:51 > part-1-of-2-startFilenameDönence.mp4 > MERGE_PARTS 
-------------------- NODE 10 ---------------------
START > 16:14:48 > part-15-of-24-startFilenamebmw.mp4 > BLUR 
END > 16:15:33 > part-15-of-24-startFilenamebmw.mp4 > BLUR 
START > 16:15:33 > part-19-of-24-startFilenamebmw.mp4 > BLUR 
END > 16:16:14 > part-19-of-24-startFilenamebmw.mp4 > BLUR 
START > 16:16:15 > part-2-of-2-startFilenameCemalım.mp4 > BLUR 
END > 16:17:18 > part-2-of-2-startFilenameCemalım.mp4 > BLUR 
START > 16:17:23 > part-19-of-24-startFilenamebmw.mp4 > STABILIZE 
END > 16:18:02 > part-19-of-24-startFilenamebmw.mp4 > STABILIZE 
START > 16:18:10 > part-19-of-24-startFilenamebmw.mp4 > ADD_WATERMARK 
END > 16:18:50 > part-19-of-24-startFilenamebmw.mp4 > ADD_WATERMARK 
START > 16:18:59 > part-19-of-24-startFilenamebmw.mp4 > REVERSE 
END > 16:19:38 > part-19-of-24-startFilenamebmw.mp4 > REVERSE 
START > 16:19:46 > part-19-of-24-startFilenamebmw.mp4 > VINTAGE 
END > 16:20:25 > part-19-of-24-startFilenamebmw.mp4 > VINTAGE 
START > 16:21:09 > SWITCH FROM BLUR TO REVERSE > from Q 16
END > 16:21:36 > SWITCH FROM BLUR TO REVERSE > from Q 16
START > 16:21:37 > part-17-of-24-startFilenamebmw.mp4 > REVERSE 
END > 16:22:15 > part-17-of-24-startFilenamebmw.mp4 > REVERSE 
START > 16:22:23 > part-17-of-24-startFilenamebmw.mp4 > VINTAGE 
END > 16:23:03 > part-17-of-24-startFilenamebmw.mp4 > VINTAGE 
-------------------- NODE 11 ---------------------
START > 16:14:51 > part-21-of-24-startFilenamebmw.mp4 > BLUR 
END > 16:15:32 > part-21-of-24-startFilenamebmw.mp4 > BLUR 
START > 16:15:32 > part-10-of-24-startFilenamebmw.mp4 > BLUR 
END > 16:16:14 > part-10-of-24-startFilenamebmw.mp4 > BLUR 
START > 16:16:15 > part-9-of-24-startFilenamebmw.mp4 > BLUR 
END > 16:17:19 > part-9-of-24-startFilenamebmw.mp4 > BLUR 
START > 16:17:20 > part-21-of-24-startFilenamebmw.mp4 > STABILIZE 
END > 16:17:58 > part-21-of-24-startFilenamebmw.mp4 > STABILIZE 
START > 16:17:58 > part-10-of-24-startFilenamebmw.mp4 > STABILIZE 
END > 16:18:38 > part-10-of-24-startFilenamebmw.mp4 > STABILIZE 
START > 16:18:38 > part-9-of-24-startFilenamebmw.mp4 > STABILIZE 
END > 16:19:41 > part-9-of-24-startFilenamebmw.mp4 > STABILIZE 
START > 16:19:45 > part-21-of-24-startFilenamebmw.mp4 > ADD_WATERMARK 
END > 16:20:22 > part-21-of-24-startFilenamebmw.mp4 > ADD_WATERMARK 
START > 16:20:22 > part-10-of-24-startFilenamebmw.mp4 > ADD_WATERMARK 
END > 16:21:01 > part-10-of-24-startFilenamebmw.mp4 > ADD_WATERMARK 
START > 16:21:02 > part-9-of-24-startFilenamebmw.mp4 > ADD_WATERMARK 
END > 16:22:02 > part-9-of-24-startFilenamebmw.mp4 > ADD_WATERMARK 
START > 16:22:06 > part-21-of-24-startFilenamebmw.mp4 > REVERSE 
END > 16:22:43 > part-21-of-24-startFilenamebmw.mp4 > REVERSE 
START > 16:22:43 > part-9-of-24-startFilenamebmw.mp4 > REVERSE 
END > 16:23:42 > part-9-of-24-startFilenamebmw.mp4 > REVERSE 
START > 16:23:47 > part-21-of-24-startFilenamebmw.mp4 > VINTAGE 
END > 16:24:23 > part-21-of-24-startFilenamebmw.mp4 > VINTAGE 
START > 16:24:23 > part-9-of-24-startFilenamebmw.mp4 > VINTAGE 
END > 16:25:23 > part-9-of-24-startFilenamebmw.mp4 > VINTAGE 
-------------------- NODE 12 ---------------------
START > 16:14:54 > part-2-of-2-startFilenameYolcu.mp4 > BLUR 
END > 16:16:05 > part-2-of-2-startFilenameYolcu.mp4 > BLUR 
START > 16:16:05 > part-16-of-24-startFilenamebmw.mp4 > BLUR 
END > 16:16:48 > part-16-of-24-startFilenamebmw.mp4 > BLUR 
START > 16:16:48 > part-8-of-24-startFilenamebmw.mp4 > BLUR 
END > 16:17:58 > part-8-of-24-startFilenamebmw.mp4 > BLUR 
START > 16:18:01 > part-2-of-2-startFilenameYolcu.mp4 > STABILIZE 
END > 16:19:05 > part-2-of-2-startFilenameYolcu.mp4 > STABILIZE 
START > 16:19:05 > part-8-of-24-startFilenamebmw.mp4 > STABILIZE 
END > 16:20:13 > part-8-of-24-startFilenamebmw.mp4 > STABILIZE 
START > 16:20:18 > part-8-of-24-startFilenamebmw.mp4 > ADD_WATERMARK 
END > 16:21:25 > part-8-of-24-startFilenamebmw.mp4 > ADD_WATERMARK 
START > 16:21:33 > part-8-of-24-startFilenamebmw.mp4 > REVERSE 
END > 16:22:38 > part-8-of-24-startFilenamebmw.mp4 > REVERSE 
START > 16:22:47 > part-8-of-24-startFilenamebmw.mp4 > VINTAGE 
END > 16:23:53 > part-8-of-24-startFilenamebmw.mp4 > VINTAGE 
-------------------- NODE 13 ---------------------
START > 16:16:30 > SWITCH FROM BLUR TO STABILIZE > from Q 14
END > 16:17:09 > SWITCH FROM BLUR TO STABILIZE > from Q 14
START > 16:17:11 > part-2-of-24-startFilenamebmw.mp4 > STABILIZE 
END > 16:17:51 > part-2-of-24-startFilenamebmw.mp4 > STABILIZE 
START > 16:17:59 > part-2-of-24-startFilenamebmw.mp4 > ADD_WATERMARK 
END > 16:18:33 > part-2-of-24-startFilenamebmw.mp4 > ADD_WATERMARK 
START > 16:18:40 > part-2-of-24-startFilenamebmw.mp4 > REVERSE 
END > 16:19:14 > part-2-of-24-startFilenamebmw.mp4 > REVERSE 
START > 16:19:21 > part-2-of-24-startFilenamebmw.mp4 > VINTAGE 
END > 16:19:54 > part-2-of-24-startFilenamebmw.mp4 > VINTAGE 
START > 16:20:24 > SWITCH FROM BLUR TO REVERSE > from Q 4
END > 16:20:47 > SWITCH FROM BLUR TO REVERSE > from Q 4
START > 16:20:48 > part-12-of-24-startFilenamebmw.mp4 > REVERSE 
END > 16:21:36 > part-12-of-24-startFilenamebmw.mp4 > REVERSE 
START > 16:21:36 > part-3-of-24-startFilenamebmw.mp4 > REVERSE 
END > 16:22:12 > part-3-of-24-startFilenamebmw.mp4 > REVERSE 
START > 16:22:15 > part-3-of-24-startFilenamebmw.mp4 > VINTAGE 
END > 16:22:51 > part-3-of-24-startFilenamebmw.mp4 > VINTAGE 
=========================== END ============================
-------------------- NODE 14 ---------------------
START > 16:14:57 > part-24-of-24-startFilenamebmw.mp4 > BLUR 
END > 16:15:34 > part-24-of-24-startFilenamebmw.mp4 > BLUR 
START > 16:15:34 > part-2-of-24-startFilenamebmw.mp4 > BLUR 
END > 16:16:09 > part-2-of-24-startFilenamebmw.mp4 > BLUR 
START > 16:16:10 > part-11-of-24-startFilenamebmw.mp4 > BLUR 
END > 16:16:52 > part-11-of-24-startFilenamebmw.mp4 > BLUR 
START > 16:16:54 > part-24-of-24-startFilenamebmw.mp4 > STABILIZE 
END > 16:17:28 > part-24-of-24-startFilenamebmw.mp4 > STABILIZE 
START > 16:17:28 > part-11-of-24-startFilenamebmw.mp4 > STABILIZE 
END > 16:18:10 > part-11-of-24-startFilenamebmw.mp4 > STABILIZE 
START > 16:18:15 > part-24-of-24-startFilenamebmw.mp4 > ADD_WATERMARK 
END > 16:18:48 > part-24-of-24-startFilenamebmw.mp4 > ADD_WATERMARK 
START > 16:18:48 > part-11-of-24-startFilenamebmw.mp4 > ADD_WATERMARK 
END > 16:19:29 > part-11-of-24-startFilenamebmw.mp4 > ADD_WATERMARK 
START > 16:19:33 > part-11-of-24-startFilenamebmw.mp4 > REVERSE 
END > 16:20:14 > part-11-of-24-startFilenamebmw.mp4 > REVERSE 
START > 16:20:24 > part-11-of-24-startFilenamebmw.mp4 > VINTAGE 
END > 16:21:03 > part-11-of-24-startFilenamebmw.mp4 > VINTAGE 
START > 16:21:57 > SWITCH FROM BLUR TO REVERSE > from Q 11
END > 16:22:24 > SWITCH FROM BLUR TO REVERSE > from Q 11
START > 16:22:27 > part-10-of-24-startFilenamebmw.mp4 > REVERSE 
END > 16:23:04 > part-10-of-24-startFilenamebmw.mp4 > REVERSE 
START > 16:23:11 > part-10-of-24-startFilenamebmw.mp4 > VINTAGE 
END > 16:23:48 > part-10-of-24-startFilenamebmw.mp4 > VINTAGE 
=========================== END ============================
-------------------- NODE 15 ---------------------
START > 16:15:01 > part-1-of-2-startFilenameDönence.mp4 > BLUR 
END > 16:16:45 > part-1-of-2-startFilenameDönence.mp4 > BLUR 
START > 16:16:45 > part-4-of-24-startFilenamebmw.mp4 > BLUR 
END > 16:17:21 > part-4-of-24-startFilenamebmw.mp4 > BLUR 
START > 16:17:26 > part-1-of-2-startFilenameDönence.mp4 > STABILIZE 
END > 16:18:54 > part-1-of-2-startFilenameDönence.mp4 > STABILIZE 
START > 16:18:55 > part-4-of-24-startFilenamebmw.mp4 > STABILIZE 
END > 16:19:31 > part-4-of-24-startFilenamebmw.mp4 > STABILIZE 
START > 16:19:31 > part-1-of-2-startFilenameDönence.mp4 > ADD_WATERMARK 
END > 16:21:00 > part-1-of-2-startFilenameDönence.mp4 > ADD_WATERMARK 
START > 16:21:00 > part-4-of-24-startFilenamebmw.mp4 > ADD_WATERMARK 
END > 16:21:37 > part-4-of-24-startFilenamebmw.mp4 > ADD_WATERMARK 
START > 16:21:42 > part-4-of-24-startFilenamebmw.mp4 > REVERSE 
END > 16:22:16 > part-4-of-24-startFilenamebmw.mp4 > REVERSE 
START > 16:22:16 > part-1-of-2-startFilenameDönence.mp4 > REVERSE 
END > 16:23:46 > part-1-of-2-startFilenameDönence.mp4 > REVERSE 
START > 16:23:48 > part-4-of-24-startFilenamebmw.mp4 > VINTAGE 
END > 16:24:22 > part-4-of-24-startFilenamebmw.mp4 > VINTAGE 
START > 16:24:22 > part-1-of-2-startFilenameDönence.mp4 > VINTAGE 
END > 16:25:41 > part-1-of-2-startFilenameDönence.mp4 > VINTAGE 
=========================== END ============================
-------------------- NODE 16 ---------------------
START > 16:15:07 > part-13-of-24-startFilenamebmw.mp4 > BLUR 
END > 16:15:58 > part-13-of-24-startFilenamebmw.mp4 > BLUR 
START > 16:15:58 > part-17-of-24-startFilenamebmw.mp4 > BLUR 
END > 16:16:39 > part-17-of-24-startFilenamebmw.mp4 > BLUR 
START > 16:16:39 > part-20-of-24-startFilenamebmw.mp4 > BLUR 
END > 16:17:21 > part-20-of-24-startFilenamebmw.mp4 > BLUR 
START > 16:17:22 > part-13-of-24-startFilenamebmw.mp4 > STABILIZE 
END > 16:18:11 > part-13-of-24-startFilenamebmw.mp4 > STABILIZE 
START > 16:18:11 > part-17-of-24-startFilenamebmw.mp4 > STABILIZE 
END > 16:18:51 > part-17-of-24-startFilenamebmw.mp4 > STABILIZE 
START > 16:18:53 > part-13-of-24-startFilenamebmw.mp4 > ADD_WATERMARK 
END > 16:19:39 > part-13-of-24-startFilenamebmw.mp4 > ADD_WATERMARK 
START > 16:19:39 > part-17-of-24-startFilenamebmw.mp4 > ADD_WATERMARK 
END > 16:20:18 > part-17-of-24-startFilenamebmw.mp4 > ADD_WATERMARK 
START > 16:20:18 > part-20-of-24-startFilenamebmw.mp4 > STABILIZE 
END > 16:20:59 > part-20-of-24-startFilenamebmw.mp4 > STABILIZE 
START > 16:21:04 > part-13-of-24-startFilenamebmw.mp4 > REVERSE 
END > 16:21:48 > part-13-of-24-startFilenamebmw.mp4 > REVERSE 
START > 16:21:57 > part-13-of-24-startFilenamebmw.mp4 > VINTAGE 
END > 16:22:42 > part-13-of-24-startFilenamebmw.mp4 > VINTAGE 
=========================== END ============================
-------------------- NODE 17 ---------------------
START > 16:15:10 > part-3-of-24-startFilenamebmw.mp4 > BLUR 
END > 16:15:52 > part-3-of-24-startFilenamebmw.mp4 > BLUR 
START > 16:15:53 > part-12-of-24-startFilenamebmw.mp4 > BLUR 
END > 16:16:43 > part-12-of-24-startFilenamebmw.mp4 > BLUR 
START > 16:16:43 > part-7-of-24-startFilenamebmw.mp4 > BLUR 
END > 16:17:22 > part-7-of-24-startFilenamebmw.mp4 > BLUR 
START > 16:17:24 > part-3-of-24-startFilenamebmw.mp4 > STABILIZE 
END > 16:18:01 > part-3-of-24-startFilenamebmw.mp4 > STABILIZE 
START > 16:18:02 > part-12-of-24-startFilenamebmw.mp4 > STABILIZE 
END > 16:18:51 > part-12-of-24-startFilenamebmw.mp4 > STABILIZE 
START > 16:18:55 > part-7-of-24-startFilenamebmw.mp4 > STABILIZE 
END > 16:19:31 > part-7-of-24-startFilenamebmw.mp4 > STABILIZE 
START > 16:19:36 > part-7-of-24-startFilenamebmw.mp4 > ADD_WATERMARK 
END > 16:20:14 > part-7-of-24-startFilenamebmw.mp4 > ADD_WATERMARK 
START > 16:20:24 > part-7-of-24-startFilenamebmw.mp4 > REVERSE 
END > 16:21:00 > part-7-of-24-startFilenamebmw.mp4 > REVERSE 
START > 16:21:08 > part-7-of-24-startFilenamebmw.mp4 > VINTAGE 
END > 16:21:41 > part-7-of-24-startFilenamebmw.mp4 > VINTAGE 
START > 16:22:55 > SWITCH FROM BLUR TO VINTAGE > from Q 19
END > 16:23:17 > SWITCH FROM BLUR TO VINTAGE > from Q 19
START > 16:23:18 > part-14-of-24-startFilenamebmw.mp4 > VINTAGE 
END > 16:24:02 > part-14-of-24-startFilenamebmw.mp4 > VINTAGE 
=========================== END ============================
-------------------- NODE 18 ---------------------
START > 16:15:13 > part-22-of-24-startFilenamebmw.mp4 > BLUR 
END > 16:15:58 > part-22-of-24-startFilenamebmw.mp4 > BLUR 
START > 16:15:59 > part-1-of-2-startFilenameYolcu.mp4 > BLUR 
END > 16:17:26 > part-1-of-2-startFilenameYolcu.mp4 > BLUR 
START > 16:17:30 > part-22-of-24-startFilenamebmw.mp4 > STABILIZE 
END > 16:18:09 > part-22-of-24-startFilenamebmw.mp4 > STABILIZE 
START > 16:18:09 > part-1-of-2-startFilenameYolcu.mp4 > STABILIZE 
END > 16:19:28 > part-1-of-2-startFilenameYolcu.mp4 > STABILIZE 
START > 16:19:31 > part-22-of-24-startFilenamebmw.mp4 > ADD_WATERMARK 
END > 16:20:11 > part-22-of-24-startFilenamebmw.mp4 > ADD_WATERMARK 
START > 16:20:15 > part-1-of-2-startFilenameYolcu.mp4 > ADD_WATERMARK 
END > 16:21:30 > part-1-of-2-startFilenameYolcu.mp4 > ADD_WATERMARK 
START > 16:21:31 > part-22-of-24-startFilenamebmw.mp4 > REVERSE 
END > 16:22:12 > part-22-of-24-startFilenamebmw.mp4 > REVERSE 
START > 16:22:12 > part-1-of-2-startFilenameYolcu.mp4 > REVERSE 
END > 16:23:25 > part-1-of-2-startFilenameYolcu.mp4 > REVERSE 
START > 16:23:27 > part-22-of-24-startFilenamebmw.mp4 > VINTAGE 
END > 16:24:05 > part-22-of-24-startFilenamebmw.mp4 > VINTAGE 
=========================== END ============================
-------------------- NODE 19 ---------------------
START > 16:15:16 > part-1-of-24-startFilenamebmw.mp4 > BLUR 
END > 16:16:02 > part-1-of-24-startFilenamebmw.mp4 > BLUR 
START > 16:16:02 > part-14-of-24-startFilenamebmw.mp4 > BLUR 
END > 16:16:44 > part-14-of-24-startFilenamebmw.mp4 > BLUR 
START > 16:16:45 > part-6-of-24-startFilenamebmw.mp4 > BLUR 
END > 16:17:18 > part-6-of-24-startFilenamebmw.mp4 > BLUR 
START > 16:17:21 > part-1-of-24-startFilenamebmw.mp4 > STABILIZE 
END > 16:18:01 > part-1-of-24-startFilenamebmw.mp4 > STABILIZE 
START > 16:18:01 > part-14-of-24-startFilenamebmw.mp4 > STABILIZE 
END > 16:18:43 > part-14-of-24-startFilenamebmw.mp4 > STABILIZE 
START > 16:18:43 > part-6-of-24-startFilenamebmw.mp4 > STABILIZE 
END > 16:19:14 > part-6-of-24-startFilenamebmw.mp4 > STABILIZE 
START > 16:19:17 > part-1-of-24-startFilenamebmw.mp4 > ADD_WATERMARK 
END > 16:19:55 > part-1-of-24-startFilenamebmw.mp4 > ADD_WATERMARK 
START > 16:19:55 > part-14-of-24-startFilenamebmw.mp4 > ADD_WATERMARK 
END > 16:20:36 > part-14-of-24-startFilenamebmw.mp4 > ADD_WATERMARK 
START > 16:20:36 > part-6-of-24-startFilenamebmw.mp4 > ADD_WATERMARK 
END > 16:21:07 > part-6-of-24-startFilenamebmw.mp4 > ADD_WATERMARK 
START > 16:21:07 > part-1-of-24-startFilenamebmw.mp4 > REVERSE 
END > 16:21:46 > part-1-of-24-startFilenamebmw.mp4 > REVERSE 
START > 16:21:46 > part-14-of-24-startFilenamebmw.mp4 > REVERSE 
END > 16:22:26 > part-14-of-24-startFilenamebmw.mp4 > REVERSE 
START > 16:22:26 > part-6-of-24-startFilenamebmw.mp4 > REVERSE 
END > 16:22:56 > part-6-of-24-startFilenamebmw.mp4 > REVERSE 
START > 16:22:58 > part-1-of-24-startFilenamebmw.mp4 > VINTAGE 
END > 16:23:35 > part-1-of-24-startFilenamebmw.mp4 > VINTAGE 
START > 16:23:36 > part-6-of-24-startFilenamebmw.mp4 > VINTAGE 
END > 16:24:05 > part-6-of-24-startFilenamebmw.mp4 > VINTAGE 
=========================== END ============================
